…
``` r
df_data
```

    ## # A tibble: 3,416,238 × 24
    ##    raw_row_number date       location      county_name  subject_age subject_race
    ##    <chr>          <date>     <chr>         <chr>              <int> <fct>       
    ##  1 1              2007-06-06 MIDDLEBOROUGH Plymouth Co…          33 white       
    ##  2 2              2007-06-07 SEEKONK       Bristol Cou…          36 white       
    ##  3 3              2007-06-07 MEDFORD       Middlesex C…          56 white       
    ##  4 4              2007-06-07 MEDFORD       Middlesex C…          37 white       
    ##  5 5              2007-06-07 EVERETT       Middlesex C…          22 hispanic    
    ##  6 6              2007-06-07 MEDFORD       Middlesex C…          34 white       
    ##  7 7              2007-06-07 SOMERVILLE    Middlesex C…          54 hispanic    
    ##  8 8              2007-06-07 HOPKINTON     Middlesex C…          31 hispanic    
    ##  9 9              2007-06-07 SOMERVILLE    Middlesex C…          21 white       
    ## 10 10             2007-06-06 BARNSTABLE    Barnstable …          56 white       
    ## # ℹ 3,416,228 more rows
    ## # ℹ 18 more variables: subject_sex <fct>, type <fct>, arrest_made <lgl>,
    ## #   citation_issued <lgl>, warning_issued <lgl>, outcome <fct>,
    ## #   contraband_found <lgl>, contraband_drugs <lgl>, contraband_weapons <lgl>,
    ## #   contraband_alcohol <lgl>, contraband_other <lgl>, frisk_performed <lgl>,
    ## #   search_conducted <lgl>, search_basis <fct>, reason_for_stop <chr>,
    ## #   vehicle_type <chr>, vehicle_registration_state <fct>, raw_Race <chr>
…
``` r
df_az
```

    ## # A tibble: 3,498,159 × 29
    ##    raw_row_number date       time  location county_name subject_race subject_sex
    ##    <chr>          <date>     <tim> <chr>    <chr>       <fct>        <fct>      
    ##  1 1              2009-01-06 01:00 I10 165  Maricopa C… hispanic     male       
    ##  2 2              2009-01-18 01:58 US60 185 Maricopa C… white        male       
    ##  3 3              2009-01-20 01:25 SR202 16 Maricopa C… hispanic     male       
    ##  4 4              2009-01-24 19:52 US60 17… Maricopa C… hispanic     female     
    ##  5 5              2009-01-25 02:25 US60 181 Maricopa C… white        female     
    ##  6 6              2009-02-01 02:08 HOLMES/… <NA>        white        male       
    ##  7 7              2009-03-09 21:35 US60 182 Maricopa C… hispanic     female     
    ##  8 8              2009-03-19 10:40 I10 185  Pinal Coun… other        female     
    ##  9 9              2009-04-14 19:37 SR202 19 Maricopa C… hispanic     male       
    ## 10 10             2009-05-10 20:03 SR202 1… Maricopa C… hispanic     female     
    ## # ℹ 3,498,149 more rows
    ## # ℹ 22 more variables: officer_id_hash <chr>, type <fct>, violation <chr>,
    ## #   arrest_made <lgl>, citation_issued <lgl>, warning_issued <lgl>,
    ## #   outcome <fct>, contraband_found <lgl>, contraband_drugs <lgl>,
    ## #   contraband_other <lgl>, search_conducted <lgl>, search_person <lgl>,
    ## #   search_vehicle <lgl>, search_basis <fct>, reason_for_stop <chr>,
    ## #   vehicle_type <chr>, vehicle_year <int>, raw_Ethnicity <chr>, …
…
